{
	"info": {
		"_postman_id": "50ae4841-5630-4698-8750-dd8b89c5628a",
		"name": "JX Core",
		"schema": "https://schema.getpostman.com/json/collection/v2.1.0/collection.json"
	},
	"item": [
		{
			"name": "MS Term",
			"item": [
				{
					"name": "Object Meta",
					"item": [
						{
							"name": "Get list",
							"request": {
								"method": "GET",
								"header": [],
								"url": {
									"raw": "localhost:8001/object-meta",
									"host": [
										"localhost"
									],
									"port": "8001",
									"path": [
										"object-meta"
									]
								}
							},
							"response": []
						},
						{
							"name": "Create",
							"request": {
								"method": "POST",
								"header": [
									{
										"key": "x-user-id",
										"value": "23ed5d7a-b7a6-4de7-b4ed-7bc50efa89cc",
										"type": "text"
									}
								],
								"body": {
									"mode": "raw",
									"raw": "{\r\n    \"object_id\" : \"40195220-2421-4044-8b0f-41c1fa019b03\",\r\n    \"object_type_key\" : \"test\",\r\n    \"meta_key\" : \"test\",\r\n    \"meta_value\" : \"test\",\r\n    \"meta_json_value\" : {\"1\": 222}\r\n}",
									"options": {
										"raw": {
											"language": "json"
										}
									}
								},
								"url": {
									"raw": "localhost:8001/object-meta",
									"host": [
										"localhost"
									],
									"port": "8001",
									"path": [
										"object-meta"
									]
								}
							},
							"response": []
						},
						{
							"name": "Update",
							"request": {
								"method": "PUT",
								"header": [
									{
										"key": "x-user-id",
										"value": "23ed5d7a-b7a6-4de7-b4ed-7bc50efa89cc",
										"type": "text"
									}
								],
								"body": {
									"mode": "raw",
									"raw": "{\r\n    \"object_id\" : \"40195220-2421-4044-8b0f-41c1fa019b03\",\r\n    \"object_type_key\" : \"test update\",\r\n    \"meta_key\" : \"test\",\r\n    \"meta_value\" : \"test\",\r\n    \"meta_json_value\" : {\"1\": 333}\r\n}",
									"options": {
										"raw": {
											"language": "json"
										}
									}
								},
								"url": {
									"raw": "localhost:8001/object-meta/:id",
									"host": [
										"localhost"
									],
									"port": "8001",
									"path": [
										"object-meta",
										":id"
									],
									"variable": [
										{
											"key": "id",
											"value": "23ed5d7a-b7a6-4de7-b4ed-7bc50efa89cc"
										}
									]
								}
							},
							"response": []
						},
						{
							"name": "Get One",
							"request": {
								"method": "GET",
								"header": [
									{
										"key": "x-user-id",
										"value": "",
										"type": "text",
										"disabled": true
									}
								],
								"url": {
									"raw": "localhost:8001/object-meta/:id",
									"host": [
										"localhost"
									],
									"port": "8001",
									"path": [
										"object-meta",
										":id"
									],
									"variable": [
										{
											"key": "id",
											"value": "23ed5d7a-b7a6-4de7-b4ed-7bc50efa89cc"
										}
									]
								}
							},
							"response": []
						},
						{
							"name": "Delete",
							"request": {
								"method": "DELETE",
								"header": [
									{
										"key": "x-user-id",
										"value": "23ed5d7a-b7a6-4de7-b4ed-7bc50efa89cc",
										"type": "text"
									}
								],
								"url": {
									"raw": "localhost:8001/object-meta/:id",
									"host": [
										"localhost"
									],
									"port": "8001",
									"path": [
										"object-meta",
										":id"
									],
									"variable": [
										{
											"key": "id",
											"value": "2cee221a-5d39-44ec-bf98-f445a47b7b6c"
										}
									]
								}
							},
							"response": []
						}
					]
				}
			]
		}
	]
}